asm/32vfs-0.ls
asm/9660srv-0.ls
asm/9auth-0.ls
asm/9dir-0.ls
asm/9excl-0.ls
asm/9fid-0.ls
asm/9fsys-0.ls
asm/9import-0.ls
asm/9lstn-0.ls
asm/9p-0.ls
asm/9ping-0.ls
asm/9proc-0.ls
asm/9pserve-0.ls
asm/9srv-0.ls
asm/9term-0.ls
asm/9user-0.ls
asm/_asgetticket-0.ls
asm/_asrdresp-0.ls
asm/_exits-0.ls
asm/_p9dialparse-0.ls
asm/_p9dir-0.ls
asm/_p9translate-0.ls
asm/_post-0.ls
asm/access-0.ls
asm/acme-0.ls
asm/acmeevent-0.ls
asm/addhash-0.ls
asm/addr-0.ls
asm/address-0.ls
asm/adler-0.ls
asm/aes-0.ls
asm/aescbc-0.ls
asm/ahd-0.ls
asm/aitoff-0.ls
asm/albers-0.ls
asm/aliasmail-0.ls
asm/alloc-0.ls
asm/alloc-stub-0.ls
asm/allocimagemix-0.ls
asm/amount-0.ls
asm/amount_getkey-0.ls
asm/announce-0.ls
asm/apop-0.ls
asm/appendfiletombox-0.ls
asm/arc-0.ls
asm/arcgen-0.ls
asm/archive-0.ls
asm/arctest-0.ls
asm/arena-0.ls
asm/arenas-0.ls
asm/argv0-0.ls
asm/arith-0.ls
asm/arith3-0.ls
asm/arp-0.ls
asm/ascii-0.ls
asm/asn12dsa-0.ls
asm/asn12rsa-0.ls
asm/atexit-0.ls
asm/atnotify-0.ls
asm/atoi-0.ls
asm/atol-0.ls
asm/atoll-0.ls
asm/attr-0.ls
asm/auth-0.ls
asm/auth_attr-0.ls
asm/auth_challenge-0.ls
asm/auth_chuid-0.ls
asm/auth_getkey-0.ls
asm/auth_getuserpasswd-0.ls
asm/auth_proxy-0.ls
asm/auth_respond-0.ls
asm/auth_rpc-0.ls
asm/auth_userpasswd-0.ls
asm/auth_wep-0.ls
asm/authdial-0.ls
asm/authorize-0.ls
asm/authunix-0.ls
asm/aux-0.ls
asm/auxclog-0.ls
asm/avl-0.ls
asm/await-0.ls
asm/azequalarea-0.ls
asm/azequidist-0.ls
asm/basename-0.ls
asm/bayes-0.ls
asm/bbits-0.ls
asm/bbox-0.ls
asm/bbuffered-0.ls
asm/bcat-0.ls
asm/betomp-0.ls
asm/bezier-0.ls
asm/bfildes-0.ls
asm/bflush-0.ls
asm/bgetc-0.ls
asm/bgetd-0.ls
asm/bgetrune-0.ls
asm/bicentric-0.ls
asm/big5-0.ls
asm/bin-0.ls
asm/bind-0.ls
asm/binit-0.ls
asm/bitinput-0.ls
asm/block-0.ls
asm/blockgen-0.ls
asm/blocksort-0.ls
asm/bloom-0.ls
asm/blowfish-0.ls
asm/bmap-0.ls
asm/bmp-0.ls
asm/bo-0.ls
asm/boffset-0.ls
asm/bonne-0.ls
asm/boot-0.ls
asm/bootp-0.ls
asm/border-0.ls
asm/box-0.ls
asm/boxgen-0.ls
asm/bprint-0.ls
asm/bputc-0.ls
asm/bputrune-0.ls
asm/brdline-0.ls
asm/brdstr-0.ls
asm/bread-0.ls
asm/bsdpty-0.ls
asm/bseek-0.ls
asm/bufblock-0.ls
asm/buff-0.ls
asm/buffcompress-0.ls
asm/buffdecompress-0.ls
asm/build-0.ls
asm/buildbuck-0.ls
asm/buildfont-0.ls
asm/buildindex-0.ls
asm/builtin-0.ls
asm/bunzip2-0.ls
asm/bvprint-0.ls
asm/bwatch-0.ls
asm/bwrite-0.ls
asm/bytesperline-0.ls
asm/bzassert-0.ls
asm/bzbuffcompress-0.ls
asm/bzcompress-0.ls
asm/bzdecompress-0.ls
asm/bzfeof-0.ls
asm/bzip2-0.ls
asm/bzip2recover-0.ls
asm/bzlib-0.ls
asm/bzread-0.ls
asm/bzstdio-0.ls
asm/bzversion-0.ls
asm/bzwrite-0.ls
asm/bzzlib-0.ls
asm/cache-0.ls
asm/cal-0.ls
asm/calendar-0.ls
asm/cat-0.ls
asm/cat_mail-0.ls
asm/cb-0.ls
asm/cbtype-0.ls
asm/ccubrt-0.ls
asm/cdrdwr-0.ls
asm/cfill-0.ls
asm/chan-0.ls
asm/channel-0.ls
asm/chap-0.ls
asm/char-0.ls
asm/charstod-0.ls
asm/chartab-0.ls
asm/check-0.ls
asm/checkarenas-0.ls
asm/checkcontent-0.ls
asm/checkindex-0.ls
asm/circ-0.ls
asm/circgen-0.ls
asm/cistrcmp-0.ls
asm/cistrncmp-0.ls
asm/cistrstr-0.ls
asm/classmask-0.ls
asm/cleanname-0.ls
asm/client-0.ls
asm/cload-0.ls
asm/cload-stub-0.ls
asm/cloadimage-0.ls
asm/close-0.ls
asm/closepl-0.ls
asm/clump-0.ls
asm/clumpstats-0.ls
asm/cmap-0.ls
asm/cmapcube-0.ls
asm/cmd-0.ls
asm/cmdline-0.ls
asm/cmp-0.ls
asm/cmparenas-0.ls
asm/cocoa-srv-0.ls
asm/cocoa-thread-0.ls
asm/code-0.ls
asm/color-0.ls
asm/colors-0.ls
asm/cols-0.ls
asm/comet-0.ls
asm/comm-0.ls
asm/command-0.ls
asm/common-0.ls
asm/comp-0.ls
asm/complete-0.ls
asm/complex-0.ls
asm/compress-0.ls
asm/computil-0.ls
asm/config-0.ls
asm/confirm-0.ls
asm/conform-0.ls
asm/conic-0.ls
asm/conn-0.ls
asm/conv-0.ls
asm/conv_big5-0.ls
asm/conv_gb-0.ls
asm/conv_jis-0.ls
asm/conv_ksc-0.ls
asm/coord-0.ls
asm/copy-0.ls
asm/core-0.ls
asm/cosadd-0.ls
asm/cpiofs-0.ls
asm/cpu-0.ls
asm/crack-0.ls
asm/crackelf-0.ls
asm/crackmacho-0.ls
asm/crc-0.ls
asm/crctable-0.ls
asm/cread-0.ls
asm/creadimage-0.ls
asm/create-0.ls
asm/crop-0.ls
asm/crt-0.ls
asm/crttest-0.ls
asm/crypt-0.ls
asm/csgetval-0.ls
asm/csipinfo-0.ls
asm/ctime-0.ls
asm/ctl-0.ls
asm/cubrt-0.ls
asm/cursor-0.ls
asm/cuts-0.ls
asm/cylequalarea-0.ls
asm/cylindrical-0.ls
asm/daemonize-0.ls
asm/data-0.ls
asm/date-0.ls
asm/db-0.ls
asm/dblook-0.ls
asm/dblookup-0.ls
asm/dc-0.ls
asm/dcache-0.ls
asm/dd-0.ls
asm/debug-0.ls
asm/debugmalloc-0.ls
asm/debugpacket-0.ls
asm/decode-0.ls
asm/decodepem-0.ls
asm/decompress-0.ls
asm/deflate-0.ls
asm/deflateblock-0.ls
asm/deflatezlib-0.ls
asm/deflatezlibblock-0.ls
asm/defont-0.ls
asm/deliver-0.ls
asm/demangler-0.ls
asm/deroff-0.ls
asm/des-0.ls
asm/desc-0.ls
asm/desmodes-0.ls
asm/dest-0.ls
asm/devcntl-0.ls
asm/devdraw-0.ls
asm/devnull-0.ls
asm/dfa-0.ls
asm/dhcp-0.ls
asm/dhcpd-0.ls
asm/dhcpleases-0.ls
asm/diacrit-0.ls
asm/dial-0.ls
asm/dict-0.ls
asm/diffdir-0.ls
asm/diffio-0.ls
asm/diffreg-0.ls
asm/direc-0.ls
asm/dirfstat-0.ls
asm/dirfwstat-0.ls
asm/dirls-0.ls
asm/dirmodefmt-0.ls
asm/dirread-0.ls
asm/dirstat-0.ls
asm/dirwstat-0.ls
asm/disk-0.ls
asm/diskcat-0.ls
asm/diskftp-0.ls
asm/disknfs-0.ls
asm/disksched-0.ls
asm/display-0.ls
asm/dist-0.ls
asm/dn-0.ls
asm/dnarea-0.ls
asm/dnnotify-0.ls
asm/dnresolve-0.ls
asm/dns-0.ls
asm/dnsdebug-0.ls
asm/dnserver-0.ls
asm/dnsquery-0.ls
asm/dnstcp-0.ls
asm/dntcpserver-0.ls
asm/dnudpserver-0.ls
asm/dofmt-0.ls
asm/dorfmt-0.ls
asm/dot-0.ls
asm/doublebuffer-0.ls
asm/download-0.ls
asm/dpoint-0.ls
asm/draw-0.ls
asm/draw-stub-0.ls
asm/drawclient-0.ls
asm/drawfcall-0.ls
asm/drawrepl-0.ls
asm/drawtest-0.ls
asm/dsa-0.ls
asm/dsa2pub-0.ls
asm/dsa2ssh-0.ls
asm/dsaalloc-0.ls
asm/dsagen-0.ls
asm/dsaprimes-0.ls
asm/dsaprivtopub-0.ls
asm/dsasign-0.ls
asm/dsaverify-0.ls
asm/dssread-0.ls
asm/dtype-0.ls
asm/du-0.ls
asm/dump-0.ls
asm/dump9660-0.ls
asm/dup-0.ls
asm/dwarf-0.ls
asm/dwarf386-0.ls
asm/dwarfabbrev-0.ls
asm/dwarfaranges-0.ls
asm/dwarfcfa-0.ls
asm/dwarfdump-0.ls
asm/dwarfeval-0.ls
asm/dwarfget-0.ls
asm/dwarfinfo-0.ls
asm/dwarfopen-0.ls
asm/dwarfpc-0.ls
asm/dwarfpubnames-0.ls
asm/dwbinit-0.ls
asm/echo-0.ls
asm/ecmd-0.ls
asm/ed-0.ls
asm/edit-0.ls
asm/egalloc-0.ls
asm/egdecrypt-0.ls
asm/egencrypt-0.ls
asm/egetrect-0.ls
asm/eggen-0.ls
asm/egprivtopub-0.ls
asm/egsign-0.ls
asm/egtest-0.ls
asm/egverify-0.ls
asm/eipfmt-0.ls
asm/elco2-0.ls
asm/elf-0.ls
asm/elfcorefreebsd386-0.ls
asm/elfcorefreebsdamd64-0.ls
asm/elfcorelinux386-0.ls
asm/elfdl386-0.ls
asm/elfdump-0.ls
asm/elfdynsym-0.ls
asm/elfnm-0.ls
asm/ellipse-0.ls
asm/elliptic-0.ls
asm/elog-0.ls
asm/emalloc-0.ls
asm/emenuhit-0.ls
asm/encodefmt-0.ls
asm/entry-0.ls
asm/env-0.ls
asm/epoch-0.ls
asm/eqnbox-0.ls
asm/equivip-0.ls
asm/erase-0.ls
asm/errfmt-0.ls
asm/error-0.ls
asm/errstr-0.ls
asm/ether-0.ls
asm/event-0.ls
asm/exec-0.ls
asm/execl-0.ls
asm/exitcode-0.ls
asm/expr-0.ls
asm/ext2-0.ls
asm/facedb-0.ls
asm/factor-0.ls
asm/fail-0.ls
asm/fastrand-0.ls
asm/fat-0.ls
asm/fcall-0.ls
asm/fcallfmt-0.ls
asm/fd-0.ls
asm/ffs-0.ls
asm/fid-0.ls
asm/file-0.ls
asm/fill-0.ls
asm/fill-stub-0.ls
asm/fillpoly-0.ls
asm/filter-0.ls
asm/findscore-0.ls
asm/fisheye-0.ls
asm/fixarenas-0.ls
asm/flateerr-0.ls
asm/flayer-0.ls
asm/flchk-0.ls
asm/flfmt-0.ls
asm/flfmt9660-0.ls
asm/fltfmt-0.ls
asm/fmt-0.ls
asm/fmtarenas-0.ls
asm/fmtbloom-0.ls
asm/fmtfd-0.ls
asm/fmtfdflush-0.ls
asm/fmtindex-0.ls
asm/fmtisect-0.ls
asm/fmtlocale-0.ls
asm/fmtlock-0.ls
asm/fmtlock2-0.ls
asm/fmtnull-0.ls
asm/fmtprint-0.ls
asm/fmtquote-0.ls
asm/fmtrune-0.ls
asm/fmtstr-0.ls
asm/fmtvprint-0.ls
asm/font-0.ls
asm/for-0.ls
asm/fork-0.ls
asm/format-0.ls
asm/fortune-0.ls
asm/fossil-0.ls
asm/fpformat-0.ls
asm/fprint-0.ls
asm/frame-0.ls
asm/frbox-0.ls
asm/frdelete-0.ls
asm/frdraw-0.ls
asm/freeipifc-0.ls
asm/freesubfont-0.ls
asm/freq-0.ls
asm/frinit-0.ls
asm/frinsert-0.ls
asm/fromto-0.ls
asm/frptofchar-0.ls
asm/frselect-0.ls
asm/frstr-0.ls
asm/frutil-0.ls
asm/fs-0.ls
asm/fsamount-0.ls
asm/fsize-0.ls
asm/fsys-0.ls
asm/ftest-0.ls
asm/funny-0.ls
asm/fuse-0.ls
asm/gall-0.ls
asm/gateway-0.ls
asm/gb-0.ls
asm/gb2312-0.ls
asm/gbits-0.ls
asm/genprime-0.ls
asm/genrandom-0.ls
asm/gensafeprime-0.ls
asm/genstrongprime-0.ls
asm/geo-0.ls
asm/get9root-0.ls
asm/getcallerpc-386-0.ls
asm/getcallerpc-arm-0.ls
asm/getcallerpc-power-0.ls
asm/getcallerpc-x86_64-0.ls
asm/getdefont-0.ls
asm/getenv-0.ls
asm/getfields-0.ls
asm/getflags-0.ls
asm/gethead-0.ls
asm/getnetconn-0.ls
asm/getns-0.ls
asm/getopt-0.ls
asm/getrect-0.ls
asm/getsubfont-0.ls
asm/getuser-0.ls
asm/getwd-0.ls
asm/gfx-0.ls
asm/gif-0.ls
asm/gilbert-0.ls
asm/glob-0.ls
asm/gmap-0.ls
asm/grab-0.ls
asm/grade-0.ls
asm/graph-0.ls
asm/gre-0.ls
asm/greylist-0.ls
asm/gs-0.ls
asm/gunzip-0.ls
asm/guyou-0.ls
asm/gview-0.ls
asm/gzip-0.ls
asm/hangup-0.ls
asm/harrison-0.ls
asm/hash-0.ls
asm/havefork-0.ls
asm/haventfork-0.ls
asm/hdisk-0.ls
asm/hdlc-0.ls
asm/header-0.ls
asm/helio-0.ls
asm/here-0.ls
asm/hex-0.ls
asm/hexify-0.ls
asm/hfs-0.ls
asm/hget-0.ls
asm/hinv-0.ls
asm/hio-0.ls
asm/hist-0.ls
asm/hmac-0.ls
asm/hmactest-0.ls
asm/homing-0.ls
asm/hproc-0.ls
asm/html-0.ls
asm/htroff-0.ls
asm/http-0.ls
asm/httpauth-0.ls
asm/httpd-0.ls
asm/httpdigest-0.ls
asm/httpfmt-0.ls
asm/httpunesc-0.ls
asm/huffman-0.ls
asm/hwdraw-0.ls
asm/hytab-0.ls
asm/ibmfont-0.ls
asm/icache-0.ls
asm/icachewrite-0.ls
asm/ichar-0.ls
asm/icmp-0.ls
asm/icmp6-0.ls
asm/ico-0.ls
asm/icons-0.ls
asm/iconv-0.ls
asm/icossin-0.ls
asm/icossin2-0.ls
asm/idiff-0.ls
asm/ieee-0.ls
asm/ifile-0.ls
